2020-03-24 13:40:16 INFO edu.baylor.ecs.si.Timer <clinit> starting the app
2020-03-24 13:40:16 INFO edu.baylor.ecs.si.Timer timeMe Calling took: 0
2020-03-24 13:40:16 INFO edu.baylor.ecs.si.Timer timeMe * should take: 0
2020-03-24 13:40:16 FINER org.junit.jupiter.engine.execution.ConditionEvaluator logResult Evaluation of condition [org.junit.jupiter.engine.extension.DisabledCondition] on [void edu.baylor.ecs.si.Tester.failOverTest() throws edu.baylor.ecs.si.TimerException] resulted in: ConditionEvaluationResult [enabled = true, reason = '@Disabled is not present']
2020-03-24 13:40:16 FINER org.junit.jupiter.engine.execution.ConditionEvaluator logResult Evaluation of condition [org.junit.jupiter.engine.extension.ScriptExecutionCondition] on [void edu.baylor.ecs.si.Tester.failOverTest() throws edu.baylor.ecs.si.TimerException] resulted in: ConditionEvaluationResult [enabled = true, reason = 'Annotation not present']
