2020-03-24 13:54:59 INFO edu.baylor.ecs.si.Timer <clinit> starting the app
2020-03-24 13:54:59 INFO edu.baylor.ecs.si.Timer timeMe Calling took: 0
2020-03-24 13:54:59 INFO edu.baylor.ecs.si.Timer timeMe * should take: 0
2020-03-24 13:54:59 FINER org.junit.jupiter.engine.execution.ConditionEvaluator logResult Evaluation of condition [org.junit.jupiter.engine.extension.DisabledCondition] on [void edu.baylor.ecs.si.Tester.failOverTest() throws edu.baylor.ecs.si.TimerException] resulted in: ConditionEvaluationResult [enabled = true, reason = '@Disabled is not present']
2020-03-24 13:54:59 FINER org.junit.jupiter.engine.execution.ConditionEvaluator logResult Evaluation of condition [org.junit.jupiter.engine.extension.ScriptExecutionCondition] on [void edu.baylor.ecs.si.Tester.failOverTest() throws edu.baylor.ecs.si.TimerException] resulted in: ConditionEvaluationResult [enabled = true, reason = 'Annotation not present']
2020-03-24 13:54:59 INFO edu.baylor.ecs.si.Timer timeMe Calling took: 0
2020-03-24 13:54:59 INFO edu.baylor.ecs.si.Timer timeMe * should take: -1
2020-03-24 13:54:59 FINER org.junit.jupiter.engine.execution.ConditionEvaluator logResult Evaluation of condition [org.junit.jupiter.engine.extension.DisabledCondition] on [void edu.baylor.ecs.si.Tester.passingTest() throws edu.baylor.ecs.si.TimerException] resulted in: ConditionEvaluationResult [enabled = true, reason = '@Disabled is not present']
2020-03-24 13:54:59 FINER org.junit.jupiter.engine.execution.ConditionEvaluator logResult Evaluation of condition [org.junit.jupiter.engine.extension.ScriptExecutionCondition] on [void edu.baylor.ecs.si.Tester.passingTest() throws edu.baylor.ecs.si.TimerException] resulted in: ConditionEvaluationResult [enabled = true, reason = 'Annotation not present']
2020-03-24 13:55:00 INFO edu.baylor.ecs.si.Timer timeMe Calling took: 1002
2020-03-24 13:55:00 INFO edu.baylor.ecs.si.Timer timeMe * should take: 1000
